# This file uses centimeters as units for non-parametric coordinates.

v -0.686539 -0.452678 8.366254
v -0.049443 -0.448891 8.367177
v -0.683647 -0.948506 8.424079
v -0.046551 -0.944719 8.425003
v -0.684364 -0.897791 8.857122
v -0.047387 -0.894021 8.981986
v -0.687084 -0.452757 8.935072
v -0.050108 -0.448987 9.059936
v -0.602439 -0.900596 8.879551
v -0.605208 -0.451792 8.984523
v -0.604614 -0.451706 8.365818
v -0.601710 -0.949548 8.423794
v -0.129679 -0.897799 8.976957
v -0.132448 -0.448994 9.081929
v -0.131762 -0.448895 8.366401
v -0.128858 -0.946737 8.424377
v -0.049298 -0.497967 9.099547
v -0.132213 -0.496415 9.130916
v -0.604966 -0.499212 9.026893
v -0.687322 -0.501742 8.967388
v -0.686668 -0.515905 8.373292
v -0.604242 -0.515415 8.372762
v -0.131390 -0.512604 8.373216
v -0.048518 -0.512111 8.374081
v -0.601737 -0.951519 8.463479
v -0.684172 -0.950043 8.462068
v -0.687348 -0.515914 8.415052
v -0.687080 -0.452201 8.408006
v -0.604660 -0.451087 8.409305
v -0.131814 -0.448277 8.416864
v -0.048939 -0.448409 8.418262
v -0.047852 -0.512114 8.425340
v -0.046031 -0.946251 8.472324
v -0.128891 -0.948709 8.471038
v -0.046405 -0.874485 8.417048
v -0.129277 -0.874978 8.416237
v -0.602129 -0.877789 8.415784
v -0.684555 -0.878279 8.416260
v -0.685232 -0.878288 8.455119
v -0.685607 -0.788109 8.954260
v -0.603311 -0.774655 9.008751
v -0.130559 -0.771859 9.112774
v -0.047583 -0.784334 9.086419
v -0.045736 -0.874488 8.465406
v -0.046109 -0.861640 8.774627
v -0.048180 -0.510125 8.755098
v -0.049258 -0.448455 8.751169
v -0.132126 -0.448323 8.742066
v -0.604929 -0.451127 8.690561
v -0.687342 -0.452239 8.681275
v -0.687619 -0.513917 8.684988
v -0.685548 -0.865432 8.704517
v -0.684436 -0.943269 8.694835
v -0.601998 -0.946099 8.701920
v -0.129194 -0.943295 8.753425
v -0.046352 -0.939485 8.764730
v -0.685118 -0.452184 8.365718
v -0.682214 -0.950026 8.423694
v -0.682927 -0.901079 8.862650
v -0.685695 -0.452268 8.967622
v -0.684137 -0.950038 8.425330
v -0.045988 -0.946245 8.426645
v -0.685086 -0.868138 8.907189
v -0.047062 -0.864363 9.039348
v -0.687497 -0.452262 8.843373
v -0.049448 -0.448483 8.948621
v -0.366096 -0.899196 8.928294
v -0.368865 -0.450393 9.033267
v -0.602771 -0.856735 8.954423
v -0.368225 -0.450300 8.366109
v -0.605089 -0.451150 8.857395
v -0.365321 -0.948143 8.424086
v -0.604603 -0.453578 8.365395
v -0.601700 -0.951514 8.425552
v -0.048967 -0.897328 8.993614
v -0.051736 -0.448517 9.098585
v -0.130018 -0.853939 9.058446
v -0.051034 -0.448415 8.366501
v -0.132311 -0.448350 8.934950
v -0.048130 -0.946257 8.424478
v -0.128848 -0.948703 8.426523
v -0.687028 -0.454068 8.365934
v -0.048878 -0.450275 8.366722
v -0.131750 -0.450767 8.365848
v -0.049581 -0.450376 9.099082
v -0.132484 -0.450874 9.130922
v -0.051502 -0.495945 9.148703
v -0.605237 -0.453670 9.026899
v -0.368627 -0.497812 9.078947
v -0.687605 -0.454152 8.966924
v -0.685453 -0.499695 9.008844
v -0.685615 -0.696421 8.394788
v -0.687809 -0.507835 8.845112
v -0.603190 -0.695931 8.394284
v -0.684746 -0.515893 8.372685
v -0.130337 -0.693120 8.394738
v -0.367853 -0.514009 8.372989
v -0.047465 -0.692627 8.395576
v -0.050662 -0.512124 8.373294
v -0.047805 -0.512107 8.376436
v -0.601841 -0.951534 8.572708
v -0.684274 -0.950058 8.567916
v -0.682239 -0.951997 8.462169
v -0.687310 -0.515909 8.375118
v -0.684847 -0.944149 8.461914
v -0.687041 -0.452196 8.367571
v -0.687709 -0.454078 8.408190
v -0.604620 -0.451082 8.367671
v -0.685162 -0.451566 8.407994
v -0.131768 -0.448271 8.368643
v -0.368274 -0.449683 8.413087
v -0.048892 -0.448402 8.368887
v -0.051087 -0.447798 8.418157
v -0.047987 -0.512134 8.565772
v -0.048213 -0.450278 8.418478
v -0.046157 -0.946269 8.603588
v -0.046798 -0.692630 8.445384
v -0.129014 -0.948727 8.598997
v -0.048165 -0.948229 8.472332
v -0.365351 -0.950114 8.467262
v -0.046020 -0.940347 8.424334
v -0.128892 -0.940839 8.423533
v -0.048549 -0.874498 8.416315
v -0.601745 -0.943650 8.423080
v -0.365740 -0.876383 8.416010
v -0.684170 -0.944140 8.423546
v -0.682633 -0.878267 8.415706
v -0.686294 -0.696430 8.435097
v -0.685197 -0.878283 8.417923
v -0.686504 -0.639519 8.968747
v -0.685335 -0.878303 8.562266
v -0.604184 -0.630844 9.026876
v -0.683798 -0.775172 8.990702
v -0.131431 -0.628048 9.130898
v -0.366972 -0.773244 9.060805
v -0.048481 -0.635744 9.100906
v -0.049847 -0.771422 9.130561
v -0.045351 -0.940349 8.472201
v -0.046510 -0.822995 8.952596
v -0.045692 -0.874481 8.419242
v -0.045864 -0.874506 8.598049
v -0.048404 -0.504048 8.950684
v -0.047154 -0.684536 8.766000
v -0.049075 -0.448429 8.560036
v -0.048532 -0.450324 8.751366
v -0.131947 -0.448297 8.555354
v -0.051407 -0.447844 8.750873
v -0.604774 -0.451104 8.529065
v -0.368565 -0.449725 8.716335
v -0.687191 -0.452218 8.524363
v -0.685425 -0.451604 8.681624
v -0.687458 -0.515930 8.529989
v -0.687971 -0.454116 8.681256
v -0.685915 -0.826782 8.847023
v -0.686593 -0.688328 8.695890
v -0.684653 -0.922863 8.794793
v -0.685142 -0.933317 8.701422
v -0.602189 -0.929752 8.799792
v -0.682493 -0.946576 8.692984
v -0.129410 -0.926952 8.877347
v -0.365633 -0.944697 8.727694
v -0.046603 -0.919084 8.900040
v -0.048475 -0.942816 8.762232
v -0.045703 -0.929525 8.771533
v -0.683694 -0.696409 8.394207
v -0.682204 -0.951992 8.425384
v -0.684670 -0.631347 9.008826
v -0.685123 -0.451560 8.367505
v -0.046753 -0.692623 8.397851
v -0.686257 -0.696425 8.396533
v -0.367845 -0.629437 9.078930
v -0.368231 -0.449676 8.368158
v -0.366801 -0.694526 8.394511
v -0.365312 -0.950109 8.426037
v -0.050720 -0.627597 9.148686
v -0.051040 -0.447791 8.368809
v -0.049610 -0.692640 8.394816
v -0.048121 -0.948223 8.426689
v -0.051773 -0.450396 9.148709
v -0.368898 -0.452272 9.078953
v -0.685724 -0.454146 9.008850
v -0.687670 -0.454072 8.367787
v -0.685106 -0.454057 8.365316
v -0.368214 -0.452173 8.365621
v -0.051022 -0.450287 8.365925
v -0.048166 -0.450271 8.369106
v -0.682680 -0.930229 8.786335
v -0.686886 -0.663932 8.850597
v -0.688126 -0.454138 8.843234
v -0.685580 -0.451626 8.843938
v -0.368737 -0.449750 8.896205
v -0.051596 -0.447871 8.948212
v -0.048722 -0.450351 8.948807
v -0.047482 -0.660145 8.956170
v -0.048695 -0.926474 8.890609
v -0.365837 -0.928352 8.838601
v -0.048165 -0.940359 8.423610
v -0.365356 -0.942245 8.423306
v -0.682249 -0.944129 8.423002
v -0.684812 -0.944144 8.425182
v -0.685451 -0.900736 8.821722
v -0.683258 -0.857238 8.936374
v -0.366432 -0.855328 9.006478
v -0.049307 -0.853488 9.076233
v -0.046046 -0.896949 8.927294
v -0.045307 -0.940343 8.426501
v -0.046929 -0.692649 8.581920
v -0.048349 -0.450297 8.560244
v -0.051223 -0.447817 8.559849
v -0.368398 -0.449701 8.542220
v -0.685274 -0.451582 8.524505
v -0.687820 -0.454094 8.524460
v -0.686401 -0.696446 8.546136
v -0.684949 -0.944164 8.567739
v -0.682341 -0.952012 8.568148
v -0.365465 -0.950131 8.585863
v -0.048290 -0.948248 8.603493
v -0.045477 -0.940367 8.603523
vt 0.375000 0.000000
vt 0.625000 0.000000
vt 0.375000 0.250000
vt 0.625000 0.250000
vt 0.375000 0.500000
vt 0.625000 0.500000
vt 0.375000 0.750000
vt 0.625000 0.750000
vt 0.375000 1.000000
vt 0.625000 1.000000
vt 0.875000 0.000000
vt 0.875000 0.250000
vt 0.125000 0.000000
vt 0.125000 0.250000
vt 0.408716 0.484238
vt 0.408716 0.765659
vt 0.378699 0.000000
vt 0.378699 1.000000
vt 0.408716 0.250102
vt 0.592365 0.484238
vt 0.592365 0.765659
vt 0.622537 0.000000
vt 0.622537 1.000000
vt 0.592365 0.250102
vt 0.625000 0.747500
vt 0.875000 0.002500
vt 0.592365 0.717085
vt 0.408716 0.717085
vt 0.125000 0.002500
vt 0.375000 0.747500
vt 0.375150 0.032915
vt 0.408716 0.032915
vt 0.592365 0.032915
vt 0.625005 0.032915
vt 0.408716 0.267153
vt 0.372500 0.250000
vt 0.375000 0.252500
vt 0.357847 0.032915
vt 0.372500 0.000000
vt 0.375000 0.997500
vt 0.408716 0.982847
vt 0.592365 0.982847
vt 0.625000 0.997500
vt 0.627500 0.000000
vt 0.642153 0.032915
vt 0.625000 0.252500
vt 0.627500 0.250000
vt 0.592365 0.267153
vt 0.625005 0.217802
vt 0.592365 0.217802
vt 0.408716 0.217802
vt 0.375150 0.217802
vt 0.357847 0.217802
vt 0.125000 0.248320
vt 0.375000 0.501680
vt 0.408716 0.532198
vt 0.592365 0.532198
vt 0.625000 0.501680
vt 0.875000 0.248320
vt 0.642153 0.217802
vt 0.748231 0.217802
vt 0.748231 0.032915
vt 0.625000 0.877775
vt 0.747225 0.000000
vt 0.592365 0.876769
vt 0.408716 0.876769
vt 0.252775 0.000000
vt 0.375000 0.877775
vt 0.251769 0.032915
vt 0.251769 0.217802
vt 0.252775 0.250000
vt 0.375000 0.372225
vt 0.408716 0.373231
vt 0.592365 0.373231
vt 0.625000 0.372225
vt 0.747225 0.250000
vt 0.376849 0.125410
vt 0.376849 0.251250
vt 0.376849 0.624590
vt 0.376849 0.998750
vt 0.626250 0.125410
vt 0.373750 0.125410
vt 0.500618 0.624590
vt 0.500618 0.998750
vt 0.500618 0.125410
vt 0.500618 0.251250
vt 0.623768 0.624590
vt 0.623768 0.998750
vt 0.623768 0.125410
vt 0.623768 0.251250
vt 0.623768 0.748750
vt 0.500618 0.748750
vt 0.376849 0.748750
vt 0.373750 0.001250
vt 0.376849 0.001250
vt 0.500618 0.001250
vt 0.623768 0.001250
vt 0.626250 0.001250
vt 0.376849 0.436112
vt 0.188888 0.125410
vt 0.188888 0.001250
vt 0.376849 0.813887
vt 0.500618 0.813887
vt 0.623768 0.813887
vt 0.811112 0.001250
vt 0.811112 0.125410
vt 0.623768 0.436112
vt 0.500618 0.436112
vt 0.623768 0.249160
vt 0.500618 0.249160
vt 0.376849 0.249160
vt 0.373750 0.249160
vt 0.188888 0.249160
vt 0.376849 0.500840
vt 0.500618 0.500840
vt 0.623768 0.500840
vt 0.811112 0.249160
vt 0.626250 0.249160
vt 0.687362 0.125410
vt 0.687362 0.001250
vt 0.623768 0.937638
vt 0.500618 0.937638
vt 0.376849 0.937638
vt 0.312638 0.001250
vt 0.312638 0.125410
vt 0.312638 0.249160
vt 0.376849 0.312362
vt 0.500618 0.312362
vt 0.623768 0.312362
vt 0.687362 0.249160
vt 0.376849 0.032915
vt 0.408716 0.125410
vt 0.376849 0.217802
vt 0.375150 0.125410
vt 0.376849 0.250102
vt 0.408716 0.251250
vt 0.376849 0.267153
vt 0.375000 0.251250
vt 0.376849 0.717085
vt 0.375000 0.624590
vt 0.376849 0.532198
vt 0.408716 0.624590
vt 0.376849 0.982847
vt 0.408716 0.998750
vt 0.376849 1.000000
vt 0.375000 0.998750
vt 0.626250 0.032915
vt 0.642153 0.125410
vt 0.626250 0.217802
vt 0.625005 0.125410
vt 0.373750 0.032915
vt 0.373750 0.217802
vt 0.357847 0.125410
vt 0.500618 0.717085
vt 0.500618 0.532198
vt 0.592365 0.624590
vt 0.500618 0.982847
vt 0.592365 0.998750
vt 0.500618 1.000000
vt 0.500618 0.032915
vt 0.592365 0.125410
vt 0.500618 0.217802
vt 0.500618 0.267153
vt 0.500618 0.250102
vt 0.592365 0.251250
vt 0.623768 0.717085
vt 0.623768 0.532198
vt 0.625000 0.624590
vt 0.623768 0.982847
vt 0.625000 0.998750
vt 0.623768 1.000000
vt 0.623768 0.032915
vt 0.623768 0.217802
vt 0.623768 0.250102
vt 0.625000 0.251250
vt 0.623768 0.267153
vt 0.623768 0.765659
vt 0.592365 0.748750
vt 0.625000 0.748750
vt 0.500618 0.765659
vt 0.408716 0.748750
vt 0.376849 0.765659
vt 0.375000 0.748750
vt 0.373750 0.000000
vt 0.375150 0.001250
vt 0.357847 0.001250
vt 0.376849 0.000000
vt 0.408716 0.001250
vt 0.500618 0.000000
vt 0.592365 0.001250
vt 0.623768 0.000000
vt 0.625005 0.001250
vt 0.626250 0.000000
vt 0.642153 0.001250
vt 0.376849 0.373231
vt 0.408716 0.436112
vt 0.376849 0.484238
vt 0.375000 0.436112
vt 0.188888 0.032915
vt 0.251769 0.125410
vt 0.188888 0.217802
vt 0.125000 0.125410
vt 0.188888 0.000000
vt 0.251769 0.001250
vt 0.125000 0.001250
vt 0.408716 0.813887
vt 0.376849 0.876769
vt 0.375000 0.813887
vt 0.500618 0.876769
vt 0.592365 0.813887
vt 0.623768 0.876769
vt 0.625000 0.813887
vt 0.748231 0.001250
vt 0.811112 0.000000
vt 0.875000 0.001250
vt 0.811112 0.032915
vt 0.748231 0.125410
vt 0.875000 0.125410
vt 0.811112 0.217802
vt 0.592365 0.436112
vt 0.623768 0.373231
vt 0.625000 0.436112
vt 0.623768 0.484238
vt 0.500618 0.373231
vt 0.500618 0.484238
vt 0.625005 0.249160
vt 0.592365 0.249160
vt 0.408716 0.249160
vt 0.375150 0.249160
vt 0.373750 0.250000
vt 0.357847 0.249160
vt 0.251769 0.249160
vt 0.188888 0.250000
vt 0.125000 0.249160
vt 0.375000 0.500840
vt 0.408716 0.500840
vt 0.592365 0.500840
vt 0.625000 0.500840
vt 0.748231 0.249160
vt 0.875000 0.249160
vt 0.811112 0.250000
vt 0.642153 0.249160
vt 0.626250 0.250000
vt 0.687362 0.032915
vt 0.687362 0.217802
vt 0.687362 0.000000
vt 0.592365 0.937638
vt 0.625000 0.937638
vt 0.408716 0.937638
vt 0.375000 0.937638
vt 0.312638 0.000000
vt 0.312638 0.032915
vt 0.312638 0.217802
vt 0.312638 0.250000
vt 0.408716 0.312362
vt 0.375000 0.312362
vt 0.592365 0.312362
vt 0.625000 0.312362
vt 0.687362 0.250000
vn -0.149340 -0.117845 -0.981738
vn 0.001658 -0.118338 -0.992972
vn 0.001654 -0.117886 -0.993026
vn -0.144057 -0.117457 -0.982574
vn 0.001630 -0.113745 -0.993509
vn -0.138818 -0.113415 -0.983802
vn -0.675178 -0.087678 -0.732426
vn -0.683761 -0.089846 -0.724154
vn -0.692090 -0.089297 -0.716266
vn -0.234886 -0.372555 -0.897793
vn 0.003695 -0.416957 -0.908919
vn 0.006106 -0.914504 -0.404530
vn -0.369573 -0.831389 -0.414980
vn 0.005944 -0.999982 -0.000133
vn -0.382508 -0.923952 -0.000495
vn -0.901763 -0.432231 -0.000925
vn -0.869090 -0.393498 -0.299735
vn -0.635696 -0.266333 -0.724539
vn -0.766183 -0.004491 0.642606
vn -0.999672 -0.005766 0.024942
vn -0.999621 -0.007379 0.026513
vn -0.765314 -0.044736 0.642101
vn -0.999207 -0.020218 0.034312
vn -0.759416 -0.232447 0.607664
vn -0.201845 -0.342315 0.917649
vn -0.216167 -0.062530 0.974352
vn -0.216949 -0.001420 0.976182
vn -0.162338 0.986735 -0.000019
vn -0.005945 0.999982 0.000133
vn -0.005606 0.987224 -0.159242
vn -0.176037 0.968200 -0.177762
vn -0.003093 0.673742 -0.738960
vn -0.203169 0.648630 -0.733486
vn -0.590468 0.530442 -0.608260
vn -0.700283 0.683899 -0.204661
vn -0.705905 0.708306 -0.000579
vn 0.989124 -0.011653 -0.146621
vn 0.999982 0.005944 0.000960
vn 0.999982 0.005944 0.000960
vn 0.988502 -0.012073 -0.150727
vn 0.999982 0.005944 0.000960
vn 0.987840 -0.011923 -0.155017
vn 0.712816 -0.075569 -0.697268
vn 0.719050 -0.077694 -0.690602
vn 0.725155 -0.077227 -0.684241
vn -0.985132 -0.025923 -0.169833
vn -0.984061 -0.026547 -0.175839
vn -0.982906 -0.026520 -0.182190
vn -0.999982 -0.005944 -0.000960
vn -0.999982 -0.005944 -0.000960
vn -0.999982 -0.005944 -0.000960
vn -0.214888 -0.001408 0.976638
vn -0.214122 -0.062546 0.974802
vn -0.199973 -0.342414 0.918022
vn -0.200105 -0.342413 0.917993
vn -0.214196 -0.062545 0.974786
vn -0.214948 -0.001408 0.976625
vn -0.005945 0.999982 0.000133
vn -0.005637 0.989036 -0.147568
vn -0.005944 0.999982 0.000133
vn -0.005662 0.990527 -0.137205
vn -0.003357 0.709465 -0.704732
vn -0.003234 0.692343 -0.721561
vn 0.001656 -0.118340 -0.992972
vn 0.001654 -0.117884 -0.993026
vn 0.001657 -0.118343 -0.992971
vn 0.001655 -0.117884 -0.993026
vn 0.001633 -0.113744 -0.993509
vn 0.001628 -0.113746 -0.993509
vn 0.005945 -0.999982 -0.000133
vn 0.006119 -0.922989 -0.384778
vn 0.003807 -0.440456 -0.897766
vn 0.003921 -0.462548 -0.886586
vn 0.006134 -0.930562 -0.366084
vn 0.005944 -0.999982 -0.000133
vn 0.608802 0.003686 0.793314
vn 0.609217 -0.045835 0.791678
vn 0.620528 -0.271095 0.735835
vn 0.999465 -0.006379 0.032085
vn 0.999639 0.004616 0.026485
vn 0.999662 0.006107 0.025265
vn 0.135221 0.990816 0.000267
vn 0.149178 0.978498 -0.142434
vn 0.673310 0.739360 0.000749
vn 0.669460 0.723367 -0.169005
vn 0.586270 0.598723 -0.545728
vn 0.198156 0.709761 -0.675998
vn 0.174145 -0.115509 -0.977922
vn 0.169563 -0.115178 -0.978766
vn 0.164994 -0.111209 -0.980005
vn 0.265729 -0.433141 -0.861265
vn 0.365948 -0.859513 -0.356818
vn 0.678396 -0.302002 -0.669757
vn 0.870615 -0.418445 -0.258716
vn 0.892089 -0.451859 0.000792
vn 0.368007 -0.929823 0.000224
vn 0.248919 0.968343 0.018715
vn -0.010458 0.999712 0.021602
vn -0.158904 0.691974 0.704217
vn 0.565666 0.702706 0.431540
vn 0.947723 0.318374 0.021444
vn 0.661868 0.749516 0.012506
vn -0.010733 0.999680 0.022917
vn -0.011091 0.999642 0.024369
vn -0.160698 0.690118 0.705629
vn -0.159026 0.691100 0.705047
vn -0.289595 0.956907 0.021521
vn -0.706312 0.707783 0.012916
vn -0.959144 0.282119 0.021266
vn -0.692891 0.606496 0.389954
vn -0.692462 0.113196 -0.712519
vn -0.972370 0.149491 -0.179301
vn -0.987415 0.158146 -0.000925
vn 0.000705 0.054545 -0.998511
vn -0.167178 0.060054 -0.984096
vn 0.000619 0.068160 -0.997674
vn 0.000540 0.081661 -0.996660
vn 0.720462 0.161030 -0.674540
vn 0.189644 0.104641 -0.976261
vn 0.982323 0.187191 0.000968
vn 0.970843 0.182960 -0.154889
vn -0.497966 -0.862431 0.090787
vn -0.006987 -0.994793 0.101680
vn -0.037086 -0.967443 0.250357
vn -0.571458 -0.791852 0.215421
vn -0.080247 -0.903859 0.420237
vn -0.613226 -0.713705 0.338495
vn -0.967694 -0.228735 0.106055
vn -0.972307 -0.224513 0.064912
vn -0.954376 -0.297003 0.030909
vn -0.999981 -0.005884 0.001669
vn -0.999982 -0.005945 -0.000960
vn -0.999982 -0.005944 -0.000960
vn -0.999980 -0.005997 0.001812
vn -0.999982 -0.005944 -0.000960
vn -0.999973 -0.006973 0.002495
vn -0.705901 0.708306 0.002560
vn -0.705902 0.708309 -0.000579
vn -0.987416 0.158140 -0.000925
vn -0.984965 0.172745 0.001862
vn -0.006398 0.999976 0.002559
vn -0.177127 0.984185 0.002662
vn -0.005945 0.999982 0.000133
vn -0.162328 0.986737 -0.000018
vn -0.005945 0.999982 0.000133
vn -0.006367 0.999977 0.002413
vn -0.006342 0.999977 0.002281
vn -0.005945 0.999982 0.000133
vn 0.135229 0.990814 0.000268
vn 0.147866 0.989004 0.002532
vn 0.670763 0.741664 0.003471
vn 0.673310 0.739360 0.000749
vn 0.982321 0.187200 0.000968
vn 0.979124 0.203233 0.003510
vn 0.999976 0.006001 0.003369
vn 0.999982 0.005945 0.000960
vn 0.999982 0.005945 0.000960
vn 0.999977 0.005897 0.003475
vn 0.999979 0.005078 0.003943
vn 0.999982 0.005944 0.000960
vn -0.029801 -0.977301 0.209747
vn -0.004660 -0.996412 0.084507
vn 0.479371 -0.874702 0.071414
vn 0.548105 -0.818723 0.171093
vn 0.950937 -0.308245 0.026531
vn 0.975794 -0.213064 0.049285
vn 0.978118 -0.192987 0.077732
vn 0.574332 -0.759124 0.306390
vn -0.071917 -0.921519 0.381617
vn -0.005672 -0.995702 0.092445
vn -0.032985 -0.972949 0.228654
vn -0.075474 -0.913370 0.400074
vn 0.706703 -0.116730 -0.697815
vn 0.176717 -0.129809 -0.975664
vn 0.001766 -0.125086 -0.992144
vn 0.001714 -0.116065 -0.993240
vn 0.001736 -0.120603 -0.992699
vn -0.148620 -0.117664 -0.981869
vn -0.665602 -0.114196 -0.737518
vn -0.976613 -0.076173 -0.201059
vn -0.998199 -0.059985 -0.000966
vn -0.999195 -0.039964 0.003646
vn -0.999101 -0.040045 0.013918
vn -0.992424 -0.102994 0.066983
vn -0.695409 -0.533689 0.481229
vn -0.144437 -0.720983 0.677733
vn -0.141901 -0.726465 0.672393
vn -0.140891 -0.731599 0.667018
vn 0.607891 -0.596227 0.524388
vn 0.995735 -0.075699 0.052746
vn 0.999513 -0.030851 0.004702
vn 0.999598 -0.025740 0.011869
vn 0.998522 -0.054344 0.000950
vn 0.982799 -0.069827 -0.170967
vn 0.999982 0.005944 0.000960
vn 0.999982 0.005945 0.000960
vn 0.999982 0.005944 0.000960
vn 0.673319 0.739352 0.000749
vn 0.982324 0.187185 0.000968
vn -0.005945 0.999982 0.000133
vn 0.135227 0.990815 0.000268
vn -0.005944 0.999982 0.000133
vn -0.005945 0.999982 0.000133
vn -0.162340 0.986735 -0.000018
vn -0.705908 0.708303 -0.000579
vn -0.987416 0.158144 -0.000925
vn -0.999982 -0.005944 -0.000960
vn -0.999982 -0.005944 -0.000960
vn -0.999982 -0.005944 -0.000960
vn -0.998559 -0.053672 0.000440
vn -0.918781 -0.394683 0.008122
vn 0.004216 -0.999778 0.020645
vn -0.414460 -0.909864 0.019269
vn 0.004360 -0.999808 0.019119
vn 0.004471 -0.999832 0.017768
vn 0.398657 -0.916954 0.016394
vn 0.910242 -0.413988 0.008575
vn 0.998883 -0.047202 0.002187
s 1
f 95/131/1 22/32/2 94/132/3 165/77/4
f 94/132/3 37/51/5 127/133/6 165/77/4
f 127/133/6 38/52/7 92/134/8 165/77/4
f 92/134/8 21/31/9 95/131/1 165/77/4
f 58/135/10 12/19/11 74/136/12 166/78/13
f 74/136/12 25/35/14 103/137/15 166/78/13
f 103/137/15 26/37/16 61/138/17 166/78/13
f 61/138/17 3/3/18 58/135/10 166/78/13
f 91/139/19 20/30/20 130/140/21 167/79/22
f 130/140/21 40/55/23 133/141/24 167/79/22
f 133/141/24 41/56/25 132/142/26 167/79/22
f 132/142/26 19/28/27 91/139/19 167/79/22
f 109/143/28 29/41/29 108/144/30 168/80/31
f 108/144/30 11/18/32 57/145/33 168/80/31
f 57/145/33 1/9/34 106/146/35 168/80/31
f 106/146/35 28/40/36 109/143/28 168/80/31
f 100/147/37 32/45/38 117/148/39 169/81/40
f 117/148/39 44/60/41 140/149/42 169/81/40
f 140/149/42 35/49/43 98/150/44 169/81/40
f 98/150/44 24/34/45 100/147/37 169/81/40
f 104/151/46 21/31/9 92/134/8 170/82/47
f 92/134/8 38/52/7 129/152/48 170/82/47
f 129/152/48 39/53/49 128/153/50 170/82/47
f 128/153/50 27/38/51 104/151/46 170/82/47
f 89/154/52 19/28/27 132/142/26 171/83/53
f 132/142/26 41/56/25 135/155/54 171/83/53
f 135/155/54 42/57/55 134/156/56 171/83/53
f 134/156/56 18/27/57 89/154/52 171/83/53
f 108/144/30 29/41/29 111/157/58 172/84/59
f 111/157/58 30/42/60 110/158/61 172/84/59
f 110/158/61 15/23/62 70/159/63 172/84/59
f 70/159/63 11/18/32 108/144/30 172/84/59
f 94/132/3 22/32/2 97/160/64 173/85/65
f 97/160/64 23/33/66 96/161/67 173/85/65
f 96/161/67 36/50/68 125/162/69 173/85/65
f 125/162/69 37/51/5 94/132/3 173/85/65
f 120/163/70 25/35/14 74/136/12 174/86/71
f 74/136/12 12/19/11 72/164/72 174/86/71
f 72/164/72 16/24/73 81/165/74 174/86/71
f 81/165/74 34/48/75 120/163/70 174/86/71
f 87/166/76 18/27/57 134/156/56 175/87/77
f 134/156/56 42/57/55 137/167/78 175/87/77
f 137/167/78 43/58/79 136/168/80 175/87/77
f 136/168/80 17/25/81 87/166/76 175/87/77
f 110/158/61 30/42/60 113/169/82 176/88/83
f 113/169/82 31/43/84 112/170/85 176/88/83
f 112/170/85 2/10/86 78/171/87 176/88/83
f 78/171/87 15/23/62 110/158/61 176/88/83
f 99/172/88 24/34/45 98/150/44 177/89/89
f 98/150/44 35/49/43 123/173/90 177/89/89
f 123/173/90 36/50/68 96/161/67 177/89/89
f 96/161/67 23/33/66 99/172/88 177/89/89
f 81/165/74 16/24/73 80/174/91 178/90/92
f 80/174/91 4/4/93 62/175/94 178/90/92
f 62/175/94 33/46/95 119/176/96 178/90/92
f 119/176/96 34/48/75 81/165/74 178/90/92
f 76/177/97 14/21/98 86/178/99 179/91/100
f 86/178/99 18/27/57 87/166/76 179/91/100
f 87/166/76 17/25/81 85/179/101 179/91/100
f 85/179/101 8/8/102 76/177/97 179/91/100
f 68/180/103 10/16/104 88/181/105 180/92/106
f 88/181/105 19/28/27 89/154/52 180/92/106
f 89/154/52 18/27/57 86/178/99 180/92/106
f 86/178/99 14/21/98 68/180/103 180/92/106
f 60/182/107 7/7/108 90/183/109 181/93/110
f 90/183/109 20/30/20 91/139/19 181/93/110
f 91/139/19 19/28/27 88/181/105 181/93/110
f 88/181/105 10/16/104 60/182/107 181/93/110
f 106/184/35 1/1/34 82/185/111 182/94/112
f 82/185/111 21/31/9 104/151/46 182/94/112
f 104/151/46 27/38/51 107/186/113 182/94/112
f 107/186/113 28/39/36 106/184/35 182/94/112
f 57/187/33 11/17/32 73/188/114 183/95/115
f 73/188/114 22/32/2 95/131/1 183/95/115
f 95/131/1 21/31/9 82/185/111 183/95/115
f 82/185/111 1/1/34 57/187/33 183/95/115
f 97/160/64 22/32/2 73/188/114 184/96/116
f 73/188/114 11/17/32 70/189/63 184/96/116
f 70/189/63 15/22/62 84/190/117 184/96/116
f 84/190/117 23/33/66 97/160/64 184/96/116
f 78/191/87 2/2/86 83/192/118 185/97/119
f 83/192/118 24/34/45 99/172/88 185/97/119
f 99/172/88 23/33/66 84/190/117 185/97/119
f 84/190/117 15/22/62 78/191/87 185/97/119
f 112/193/85 31/44/84 115/194/120 186/98/121
f 115/194/120 32/45/38 100/147/37 186/98/121
f 100/147/37 24/34/45 83/192/118 186/98/121
f 83/192/118 2/2/86 112/193/85 186/98/121
f 159/195/122 54/73/123 158/196/124 187/99/125
f 158/196/124 9/15/126 59/197/127 187/99/125
f 59/197/127 5/5/128 156/198/129 187/99/125
f 156/198/129 53/72/130 159/195/122 187/99/125
f 93/199/131 51/69/132 155/200/133 188/100/134
f 155/200/133 52/70/135 154/201/136 188/100/134
f 154/201/136 40/54/23 130/202/21 188/100/134
f 130/202/21 20/29/20 93/199/131 188/100/134
f 65/203/137 50/67/138 153/204/139 189/101/140
f 153/204/139 51/69/132 93/199/131 189/101/140
f 93/199/131 20/29/20 90/205/109 189/101/140
f 90/205/109 7/13/108 65/203/137 189/101/140
f 60/182/107 10/16/104 71/206/141 190/102/142
f 71/206/141 49/66/143 151/207/144 190/102/142
f 151/207/144 50/68/138 65/208/137 190/102/142
f 65/208/137 7/7/108 60/182/107 190/102/142
f 149/209/145 49/66/143 71/206/141 191/103/146
f 71/206/141 10/16/104 68/180/103 191/103/146
f 68/180/103 14/21/98 79/210/147 191/103/146
f 79/210/147 48/65/148 149/209/145 191/103/146
f 147/211/149 48/65/148 79/210/147 192/104/150
f 79/210/147 14/21/98 76/177/97 192/104/150
f 76/177/97 8/8/102 66/212/151 192/104/150
f 66/212/151 47/63/152 147/211/149 192/104/150
f 145/213/153 47/64/152 66/214/151 193/105/154
f 66/214/151 8/11/102 85/215/101 193/105/154
f 85/215/101 17/26/81 142/216/155 193/105/154
f 142/216/155 46/62/156 145/213/153 193/105/154
f 143/217/157 46/62/156 142/216/155 194/106/158
f 142/216/155 17/26/81 136/218/80 194/106/158
f 136/218/80 43/59/79 139/219/159 194/106/158
f 139/219/159 45/61/160 143/217/157 194/106/158
f 160/220/161 55/74/162 163/221/163 195/107/164
f 163/221/163 56/75/165 162/222/166 195/107/164
f 162/222/166 6/6/167 75/223/168 195/107/164
f 75/223/168 13/20/169 160/220/161 195/107/164
f 158/196/124 54/73/123 161/224/170 196/108/171
f 161/224/170 55/74/162 160/220/161 196/108/171
f 160/220/161 13/20/169 67/225/172 196/108/171
f 67/225/172 9/15/126 158/196/124 196/108/171
f 123/173/90 35/49/43 121/226/173 197/109/174
f 121/226/173 4/4/93 80/174/91 197/109/174
f 80/174/91 16/24/73 122/227/175 197/109/174
f 122/227/175 36/50/68 123/173/90 197/109/174
f 124/228/176 37/51/5 125/162/69 198/110/177
f 125/162/69 36/50/68 122/227/175 198/110/177
f 122/227/175 16/24/73 72/164/72 198/110/177
f 72/164/72 12/19/11 124/228/176 198/110/177
f 127/133/6 37/51/5 124/228/176 199/111/178
f 124/228/176 12/19/11 58/135/10 199/111/178
f 58/135/10 3/3/18 126/229/179 199/111/178
f 126/229/179 38/52/7 127/133/6 199/111/178
f 129/152/48 38/52/7 126/229/179 200/112/180
f 126/229/179 3/3/18 61/230/17 200/112/180
f 61/230/17 26/36/16 105/231/181 200/112/180
f 105/231/181 39/53/49 129/152/48 200/112/180
f 154/201/136 52/70/135 157/232/182 201/113/183
f 157/232/182 53/71/130 156/233/129 201/113/183
f 156/233/129 5/14/128 63/234/184 201/113/183
f 63/234/184 40/54/23 154/201/136 201/113/183
f 133/141/24 40/55/23 63/235/184 202/114/185
f 63/235/184 5/5/128 59/197/127 202/114/185
f 59/197/127 9/15/126 69/236/186 202/114/185
f 69/236/186 41/56/25 133/141/24 202/114/185
f 135/155/54 41/56/25 69/236/186 203/115/187
f 69/236/186 9/15/126 67/225/172 203/115/187
f 67/225/172 13/20/169 77/237/188 203/115/187
f 77/237/188 42/57/55 135/155/54 203/115/187
f 137/167/78 42/57/55 77/237/188 204/116/189
f 77/237/188 13/20/169 75/223/168 204/116/189
f 75/223/168 6/6/167 64/238/190 204/116/189
f 64/238/190 43/58/79 137/167/78 204/116/189
f 164/239/191 45/61/160 139/219/159 205/117/192
f 139/219/159 43/59/79 64/240/190 205/117/192
f 64/240/190 6/12/167 162/241/166 205/117/192
f 162/241/166 56/76/165 164/239/191 205/117/192
f 140/149/42 44/60/41 138/242/193 206/118/194
f 138/242/193 33/47/95 62/243/94 206/118/194
f 62/243/94 4/4/93 121/226/173 206/118/194
f 121/226/173 35/49/43 140/149/42 206/118/194
f 117/148/39 32/45/38 114/244/195 207/119/196
f 114/244/195 46/62/156 143/217/157 207/119/196
f 143/217/157 45/61/160 141/245/197 207/119/196
f 141/245/197 44/60/41 117/148/39 207/119/196
f 115/194/120 31/44/84 144/246/198 208/120/199
f 144/246/198 47/64/152 145/213/153 208/120/199
f 145/213/153 46/62/156 114/244/195 208/120/199
f 114/244/195 32/45/38 115/194/120 208/120/199
f 113/169/82 30/42/60 146/247/200 209/121/201
f 146/247/200 48/65/148 147/211/149 209/121/201
f 147/211/149 47/63/152 144/248/198 209/121/201
f 144/248/198 31/43/84 113/169/82 209/121/201
f 111/157/58 29/41/29 148/249/202 210/122/203
f 148/249/202 49/66/143 149/209/145 210/122/203
f 149/209/145 48/65/148 146/247/200 210/122/203
f 146/247/200 30/42/60 111/157/58 210/122/203
f 151/207/144 49/66/143 148/249/202 211/123/204
f 148/249/202 29/41/29 109/143/28 211/123/204
f 109/143/28 28/40/36 150/250/205 211/123/204
f 150/250/205 50/68/138 151/207/144 211/123/204
f 153/204/139 50/67/138 150/251/205 212/124/206
f 150/251/205 28/39/36 107/186/113 212/124/206
f 107/186/113 27/38/51 152/252/207 212/124/206
f 152/252/207 51/69/132 153/204/139 212/124/206
f 155/200/133 51/69/132 152/252/207 213/125/208
f 152/252/207 27/38/51 128/153/50 213/125/208
f 128/153/50 39/53/49 131/253/209 213/125/208
f 131/253/209 52/70/135 155/200/133 213/125/208
f 157/232/182 52/70/135 131/253/209 214/126/210
f 131/253/209 39/53/49 105/231/181 214/126/210
f 105/231/181 26/36/16 102/254/211 214/126/210
f 102/254/211 53/71/130 157/232/182 214/126/210
f 103/137/15 25/35/14 101/255/212 215/127/213
f 101/255/212 54/73/123 159/195/122 215/127/213
f 159/195/122 53/72/130 102/256/211 215/127/213
f 102/256/211 26/37/16 103/137/15 215/127/213
f 161/224/170 54/73/123 101/255/212 216/128/214
f 101/255/212 25/35/14 120/163/70 216/128/214
f 120/163/70 34/48/75 118/257/215 216/128/214
f 118/257/215 55/74/162 161/224/170 216/128/214
f 163/221/163 55/74/162 118/257/215 217/129/216
f 118/257/215 34/48/75 119/176/96 217/129/216
f 119/176/96 33/46/95 116/258/217 217/129/216
f 116/258/217 56/75/165 163/221/163 217/129/216
f 138/242/193 44/60/41 141/245/197 218/130/218
f 141/245/197 45/61/160 164/239/191 218/130/218
f 164/239/191 56/76/165 116/259/217 218/130/218
f 116/259/217 33/47/95 138/242/193 218/130/218
